[gd_scene load_steps=9 format=2]

[ext_resource path="res://Main.gd" type="Script" id=1]
[ext_resource path="res://map/islands/Island.gd" type="Script" id=2]
[ext_resource path="res://map/Map.gd" type="Script" id=3]
[ext_resource path="res://player/Player.gd" type="Script" id=4]
[ext_resource path="res://Encounter/fileReader.gd" type="Script" id=5]
[ext_resource path="res://Encounter/Encounter.gd" type="Script" id=6]
[ext_resource path="res://interface/View.gd" type="Script" id=7]
[ext_resource path="res://PlayGame.gd" type="Script" id=8]

[node name="Node" type="Node" groups=[
"persistent",
"saveable",
]]
script = ExtResource( 1 )

[node name="Island" type="Node" parent="."]
script = ExtResource( 2 )

[node name="Map" type="Node" parent="." groups=[
"save",
"persistent",
"saveable",
]]
script = ExtResource( 3 )

[node name="Player" type="Node" parent="." groups=[
"save",
"persistent",
"saveable",
]]
script = ExtResource( 4 )

[node name="FileReader" type="Node" parent="."]
script = ExtResource( 5 )

[node name="Encounter" type="Node" parent="." groups=[
"saveable",
]]
script = ExtResource( 6 )

[node name="View" type="Node" parent="."]
script = ExtResource( 7 )

[node name="PlayGame" type="Node" parent="."]
script = ExtResource( 8 )
