[gd_scene load_steps=5 format=2]

[ext_resource path="res://map_graphics/IslandGraphic.gd" type="Script" id=1]
[ext_resource path="res://tiles/DesertedIsland2.png" type="Texture" id=2]
[ext_resource path="res://map/islands/Island.gd" type="Script" id=3]

[sub_resource type="RectangleShape2D" id=1]
extents = Vector2( 78.286, 106.4 )

[node name="IslandGraphic" type="Area2D"]
position = Vector2( 483, 253 )
script = ExtResource( 1 )

[node name="IslandSprite" type="Sprite" parent="."]
scale = Vector2( 0.4, 0.4 )
texture = ExtResource( 2 )

[node name="CollisionShape2D" type="CollisionShape2D" parent="."]
shape = SubResource( 1 )

[node name="Island" type="Node" parent="."]
script = ExtResource( 3 )
[connection signal="input_event" from="." to="." method="_on_IslandGraphic_input_event"]
