[gd_scene load_steps=38 format=2]

[ext_resource path="res://IslandsTopDownView/IslandVisualCode.gd" type="Script" id=1]
[ext_resource path="res://tiles/IslandEncounterTiles/GrassTile.png" type="Texture" id=2]
[ext_resource path="res://tiles/IslandEncounterTiles/GrassTiletwo.png" type="Texture" id=3]
[ext_resource path="res://tiles/IslandEncounterTiles/WoodenTile128px.png" type="Texture" id=4]
[ext_resource path="res://tiles/IslandEncounterTiles/PlainGrassTile.v3.png" type="Texture" id=5]
[ext_resource path="res://tiles/IslandEncounterTiles/SandTile.png" type="Texture" id=6]
[ext_resource path="res://tiles/IslandEncounterTiles/SandTileThree.png" type="Texture" id=7]
[ext_resource path="res://tiles/IslandEncounterTiles/SanDTileTwo.png" type="Texture" id=8]
[ext_resource path="res://tiles/IslandEncounterTiles/SeaTile.png" type="Texture" id=9]
[ext_resource path="res://tiles/IslandEncounterTiles/NoneShallPass.png" type="Texture" id=10]
[ext_resource path="res://tiles/IslandEncounterTiles/WoodenDockGold128px.png" type="Texture" id=11]
[ext_resource path="res://CharacterTopDownView/Character.tscn" type="PackedScene" id=12]
[ext_resource path="res://CharactersImages/CharacterImages/Pirate_idle.png" type="Texture" id=13]
[ext_resource path="res://IslandsTopDownView/Assets/Tree.tscn" type="PackedScene" id=14]
[ext_resource path="res://IslandsTopDownView/Assets/Bushes.tscn" type="PackedScene" id=15]
[ext_resource path="res://IslandsTopDownView/Assets/BuildingOne.tscn" type="PackedScene" id=16]
[ext_resource path="res://IslandsTopDownView/Assets/BuildingThree.tscn" type="PackedScene" id=17]
[ext_resource path="res://IslandsTopDownView/Assets/BuildingFour.tscn" type="PackedScene" id=18]
[ext_resource path="res://IslandsTopDownView/Assets/Exit.tscn" type="PackedScene" id=19]
[ext_resource path="res://IslandsTopDownView/Assets/Item.tscn" type="PackedScene" id=20]
[ext_resource path="res://Temp.tscn" type="PackedScene" id=21]
[ext_resource path="res://images/8 bit pirate SHIP.png" type="Texture" id=22]
[ext_resource path="res://mapAudio/Seagull.wav" type="AudioStream" id=23]
[ext_resource path="res://mapAudio/Rough_Sea_Waves.wav" type="AudioStream" id=24]
[ext_resource path="res://map_graphics/DayNightTint.tscn" type="PackedScene" id=25]

[sub_resource type="NavigationPolygon" id=1]
vertices = PoolVector2Array( 0, 0, 64, 0, 64, 64, 0, 64 )
polygons = [ PoolIntArray( 0, 1, 2, 3 ) ]

[sub_resource type="NavigationPolygon" id=2]
vertices = PoolVector2Array( 0, 0, 64, 0, 64, 64, 0, 64 )
polygons = [ PoolIntArray( 0, 1, 2, 3 ) ]

[sub_resource type="NavigationPolygon" id=3]
vertices = PoolVector2Array( 0, 0, 64, 0, 64, 64, 0, 64 )
polygons = [ PoolIntArray( 0, 1, 2, 3 ) ]

[sub_resource type="NavigationPolygon" id=4]
vertices = PoolVector2Array( 0, 0, 64, 0, 64, 64, 0, 64 )
polygons = [ PoolIntArray( 0, 1, 2, 3 ) ]

[sub_resource type="NavigationPolygon" id=5]
vertices = PoolVector2Array( 0, 0, 64, 0, 64, 64, 0, 64 )
polygons = [ PoolIntArray( 0, 1, 2, 3 ) ]

[sub_resource type="NavigationPolygon" id=6]
vertices = PoolVector2Array( 0, 0, 64, 0, 64, 64, 0, 64 )
polygons = [ PoolIntArray( 0, 1, 2, 3 ) ]

[sub_resource type="NavigationPolygon" id=7]
vertices = PoolVector2Array( 0, 0, 64, 0, 64, 64, 0, 64 )
polygons = [ PoolIntArray( 0, 1, 2, 3 ) ]

[sub_resource type="RectangleShape2D" id=8]

[sub_resource type="ConvexPolygonShape2D" id=9]
points = PoolVector2Array( 0, 0, 64, 0, 64, 64, 0, 64 )

[sub_resource type="NavigationPolygon" id=10]
vertices = PoolVector2Array( 0, 0, 64, 0, 64, 64, 0, 64 )
polygons = [ PoolIntArray( 0, 1, 2, 3 ) ]

[sub_resource type="TileSet" id=11]
0/name = "GrassTile.png 0"
0/texture = ExtResource( 2 )
0/tex_offset = Vector2( 0, 0 )
0/modulate = Color( 1, 1, 1, 1 )
0/region = Rect2( 0, 0, 64, 64 )
0/tile_mode = 0
0/occluder_offset = Vector2( 0, 0 )
0/navigation_offset = Vector2( 0, 0 )
0/navigation = SubResource( 1 )
0/shapes = [  ]
0/z_index = 0
1/name = "GrassTiletwo.png 1"
1/texture = ExtResource( 3 )
1/tex_offset = Vector2( 0, 0 )
1/modulate = Color( 1, 1, 1, 1 )
1/region = Rect2( 0, 0, 64, 64 )
1/tile_mode = 0
1/occluder_offset = Vector2( 0, 0 )
1/navigation_offset = Vector2( 0, 0 )
1/navigation = SubResource( 2 )
1/shapes = [  ]
1/z_index = 0
2/name = "PlainGrassTile.v3.png 2"
2/texture = ExtResource( 5 )
2/tex_offset = Vector2( 0, 0 )
2/modulate = Color( 1, 1, 1, 1 )
2/region = Rect2( 0, 0, 64, 64 )
2/tile_mode = 0
2/occluder_offset = Vector2( 0, 0 )
2/navigation_offset = Vector2( 0, 0 )
2/navigation = SubResource( 4 )
2/shapes = [  ]
2/z_index = 0
3/name = "SandTile.png 3"
3/texture = ExtResource( 6 )
3/tex_offset = Vector2( 0, 0 )
3/modulate = Color( 1, 1, 1, 1 )
3/region = Rect2( 0, 0, 64, 64 )
3/tile_mode = 0
3/occluder_offset = Vector2( 0, 0 )
3/navigation_offset = Vector2( 0, 0 )
3/navigation = SubResource( 5 )
3/shapes = [  ]
3/z_index = 0
5/name = "SandTileThree.png 5"
5/texture = ExtResource( 7 )
5/tex_offset = Vector2( 0, 0 )
5/modulate = Color( 1, 1, 1, 1 )
5/region = Rect2( 0, 0, 64, 64 )
5/tile_mode = 0
5/occluder_offset = Vector2( 0, 0 )
5/navigation_offset = Vector2( 0, 0 )
5/navigation = SubResource( 6 )
5/shapes = [  ]
5/z_index = 0
6/name = "SanDTileTwo.png 6"
6/texture = ExtResource( 8 )
6/tex_offset = Vector2( 0, 0 )
6/modulate = Color( 1, 1, 1, 1 )
6/region = Rect2( 0, 0, 64, 64 )
6/tile_mode = 0
6/occluder_offset = Vector2( 0, 0 )
6/navigation_offset = Vector2( 0, 0 )
6/navigation = SubResource( 7 )
6/shapes = [  ]
6/z_index = 0
7/name = "SeaTile.png 7"
7/texture = ExtResource( 9 )
7/tex_offset = Vector2( 0, 0 )
7/modulate = Color( 1, 1, 1, 1 )
7/region = Rect2( 0, 0, 64, 64 )
7/tile_mode = 0
7/occluder_offset = Vector2( 0, 0 )
7/navigation_offset = Vector2( 0, 0 )
7/shapes = [ {
"autotile_coord": Vector2( 0, 0 ),
"one_way": false,
"one_way_margin": 1.0,
"shape": SubResource( 8 ),
"shape_transform": Transform2D( 1, 0, 0, 1, 0, 0 )
}, {
"autotile_coord": Vector2( 0, 0 ),
"one_way": false,
"one_way_margin": 1.0,
"shape": SubResource( 9 ),
"shape_transform": Transform2D( 1, 0, 0, 1, 0, 0 )
} ]
7/z_index = 0
8/name = "NoneShallPass.png 8"
8/texture = ExtResource( 10 )
8/tex_offset = Vector2( 0, 0 )
8/modulate = Color( 1, 1, 1, 1 )
8/region = Rect2( 0, 0, 64, 64 )
8/tile_mode = 0
8/occluder_offset = Vector2( 0, 0 )
8/navigation_offset = Vector2( 0, 0 )
8/shapes = [  ]
8/z_index = 0
9/name = "WoodenDockGold128px.png 9"
9/texture = ExtResource( 11 )
9/tex_offset = Vector2( 0, 0 )
9/modulate = Color( 1, 1, 1, 1 )
9/region = Rect2( 0, 0, 64, 64 )
9/tile_mode = 0
9/occluder_offset = Vector2( 0, 0 )
9/navigation_offset = Vector2( 0, 0 )
9/navigation = SubResource( 10 )
9/shapes = [  ]
9/z_index = 0
10/name = "WoodenTile128px.png 10"
10/texture = ExtResource( 4 )
10/tex_offset = Vector2( 0, 0 )
10/modulate = Color( 1, 1, 1, 1 )
10/region = Rect2( 0, 0, 64, 64 )
10/tile_mode = 0
10/occluder_offset = Vector2( 0, 0 )
10/navigation_offset = Vector2( 0, 0 )
10/navigation = SubResource( 3 )
10/shapes = [  ]
10/z_index = 0

[sub_resource type="CircleShape2D" id=12]
radius = 30.1727

[node name="Node2D" type="Node2D"]
script = ExtResource( 1 )

[node name="Navigation2D" type="Navigation2D" parent="."]

[node name="TileMap" type="TileMap" parent="Navigation2D"]
tile_set = SubResource( 11 )
collision_friction = 0.0
format = 1
tile_data = PoolIntArray( -327690, 7, 0, -327689, 7, 0, -327688, 7, 0, -327687, 7, 0, -327686, 7, 0, -327685, 7, 0, -327684, 7, 0, -327683, 7, 0, -327682, 7, 0, -327681, 7, 0, -393216, 7, 0, -393215, 7, 0, -393214, 7, 0, -393213, 7, 0, -393212, 7, 0, -393211, 7, 0, -393210, 7, 0, -393209, 7, 0, -393208, 7, 0, -393207, 7, 0, -393206, 7, 0, -393205, 7, 0, -393204, 7, 0, -393203, 7, 0, -393202, 7, 0, -393201, 7, 0, -393200, 7, 0, -393199, 7, 0, -393198, 7, 0, -393197, 7, 0, -393196, 7, 0, -393195, 7, 0, -393194, 7, 0, -393193, 7, 0, -393192, 7, 0, -393191, 7, 0, -393190, 7, 0, -393189, 7, 0, -393188, 7, 0, -393187, 7, 0, -393186, 7, 0, -393185, 7, 0, -393184, 7, 0, -393183, 7, 0, -393182, 7, 0, -393181, 7, 0, -393180, 7, 0, -393179, 7, 0, -393178, 7, 0, -393177, 7, 0, -393176, 7, 0, -393175, 7, 0, -393174, 7, 0, -393173, 7, 0, -393172, 7, 0, -393171, 7, 0, -393170, 7, 0, -393169, 7, 0, -393168, 7, 0, -262154, 7, 0, -262153, 7, 0, -262152, 7, 0, -262151, 7, 0, -262150, 7, 0, -262149, 7, 0, -262148, 7, 0, -262147, 7, 0, -262146, 7, 0, -262145, 7, 0, -327680, 7, 0, -327679, 7, 0, -327678, 7, 0, -327677, 7, 0, -327676, 7, 0, -327675, 7, 0, -327674, 7, 0, -327673, 7, 0, -327672, 7, 0, -327671, 7, 0, -327670, 7, 0, -327669, 7, 0, -327668, 7, 0, -327667, 7, 0, -327666, 7, 0, -327665, 7, 0, -327664, 7, 0, -327663, 7, 0, -327662, 7, 0, -327661, 7, 0, -327660, 7, 0, -327659, 7, 0, -327658, 7, 0, -327657, 7, 0, -327656, 7, 0, -327655, 7, 0, -327654, 7, 0, -327653, 7, 0, -327652, 7, 0, -327651, 7, 0, -327650, 7, 0, -327649, 7, 0, -327648, 7, 0, -327647, 7, 0, -327646, 7, 0, -327645, 7, 0, -327644, 7, 0, -327643, 7, 0, -327642, 7, 0, -327641, 7, 0, -327640, 7, 0, -327639, 7, 0, -327638, 7, 0, -327637, 7, 0, -327636, 7, 0, -327635, 7, 0, -327634, 7, 0, -327633, 7, 0, -327632, 7, 0, -196618, 7, 0, -196617, 7, 0, -196616, 7, 0, -196615, 7, 0, -196614, 7, 0, -196613, 7, 0, -196612, 7, 0, -196611, 7, 0, -196610, 7, 0, -196609, 7, 0, -262144, 7, 0, -262143, 7, 0, -262142, 7, 0, -262141, 7, 0, -262140, 7, 0, -262139, 7, 0, -262138, 7, 0, -262137, 7, 0, -262136, 7, 0, -262135, 7, 0, -262134, 7, 0, -262133, 7, 0, -262132, 7, 0, -262131, 7, 0, -262130, 7, 0, -262129, 7, 0, -262128, 7, 0, -262127, 7, 0, -262126, 7, 0, -262125, 7, 0, -262124, 7, 0, -262123, 7, 0, -262122, 7, 0, -262121, 7, 0, -262120, 7, 0, -262119, 7, 0, -262118, 7, 0, -262117, 7, 0, -262116, 7, 0, -262115, 7, 0, -262114, 7, 0, -262113, 7, 0, -262112, 7, 0, -262111, 7, 0, -262110, 7, 0, -262109, 7, 0, -262108, 7, 0, -262107, 7, 0, -262106, 7, 0, -262105, 7, 0, -262104, 7, 0, -262103, 7, 0, -262102, 7, 0, -262101, 7, 0, -262100, 7, 0, -262099, 7, 0, -262098, 7, 0, -262097, 7, 0, -262096, 7, 0, -131082, 7, 0, -131081, 7, 0, -131080, 7, 0, -131079, 7, 0, -131078, 7, 0, -131077, 7, 0, -131076, 7, 0, -131075, 7, 0, -131074, 7, 0, -131073, 7, 0, -196608, 7, 0, -196607, 7, 0, -196606, 7, 0, -196605, 7, 0, -196604, 7, 0, -196603, 7, 0, -196602, 7, 0, -196601, 7, 0, -196600, 7, 0, -196599, 7, 0, -196598, 7, 0, -196597, 7, 0, -196596, 7, 0, -196595, 5, 0, -196594, 7, 0, -196593, 7, 0, -196592, 7, 0, -196591, 7, 0, -196590, 6, 0, -196589, 7, 0, -196588, 7, 0, -196587, 7, 0, -196586, 7, 0, -196585, 7, 0, -196584, 7, 0, -196583, 7, 0, -196582, 7, 0, -196581, 7, 0, -196580, 7, 0, -196579, 7, 0, -196578, 7, 0, -196577, 7, 0, -196576, 7, 0, -196575, 7, 0, -196574, 7, 0, -196573, 7, 0, -196572, 7, 0, -196571, 7, 0, -196570, 7, 0, -196569, 7, 0, -196568, 7, 0, -196567, 7, 0, -196566, 7, 0, -196565, 7, 0, -196564, 7, 0, -196563, 7, 0, -196562, 7, 0, -196561, 7, 0, -196560, 7, 0, -65546, 7, 0, -65545, 7, 0, -65544, 7, 0, -65543, 7, 0, -65542, 7, 0, -65541, 7, 0, -65540, 7, 0, -65539, 7, 0, -65538, 7, 0, -65537, 7, 0, -131072, 7, 0, -131071, 7, 0, -131070, 7, 0, -131069, 3, 0, -131068, 3, 0, -131067, 7, 0, -131066, 7, 0, -131065, 3, 0, -131064, 7, 0, -131063, 7, 0, -131062, 3, 0, -131061, 7, 0, -131060, 7, 0, -131059, 3, 0, -131058, 3, 0, -131057, 7, 0, -131056, 7, 0, -131055, 7, 0, -131054, 3, 0, -131053, 7, 0, -131052, 7, 0, -131051, 3, 0, -131050, 7, 0, -131049, 7, 0, -131048, 7, 0, -131047, 5, 0, -131046, 3, 0, -131045, 7, 0, -131044, 7, 0, -131043, 3, 0, -131042, 7, 0, -131041, 7, 0, -131040, 3, 0, -131039, 7, 0, -131038, 7, 0, -131037, 7, 0, -131036, 5, 0, -131035, 3, 0, -131034, 7, 0, -131033, 7, 0, -131032, 7, 0, -131031, 7, 0, -131030, 7, 0, -131029, 7, 0, -131028, 7, 0, -131027, 7, 0, -131026, 7, 0, -131025, 7, 0, -131024, 7, 0, -10, 7, 0, -9, 7, 0, -8, 7, 0, -7, 7, 0, -6, 7, 0, -5, 7, 0, -4, 7, 0, -3, 7, 0, -2, 7, 0, -1, 7, 0, -65536, 7, 0, -65535, 7, 0, -65534, 7, 0, -65533, 7, 0, -65532, 7, 0, -65531, 7, 0, -65530, 7, 0, -65529, 3, 0, -65528, 7, 0, -65527, 7, 0, -65526, 7, 0, -65525, 7, 0, -65524, 7, 0, -65523, 7, 0, -65522, 7, 0, -65521, 7, 0, -65520, 7, 0, -65519, 7, 0, -65518, 7, 0, -65517, 1073741831, 0, -65516, 1073741831, 0, -65515, 7, 0, -65514, 7, 0, -65513, 7, 0, -65512, 7, 0, -65511, 3, 0, -65510, 7, 0, -65509, 7, 0, -65508, 7, 0, -65507, 7, 0, -65506, 7, 0, -65505, 7, 0, -65504, 7, 0, -65503, 3, 0, -65502, 7, 0, -65501, 7, 0, -65500, 7, 0, -65499, 7, 0, -65498, 7, 0, -65497, 7, 0, -65496, 7, 0, -65495, 7, 0, -65494, 7, 0, -65493, 7, 0, -65492, 7, 0, -65491, 7, 0, -65490, 7, 0, -65489, 7, 0, -65488, 7, 0, 65526, 7, 0, 65527, 7, 0, 65528, 7, 0, 65529, 7, 0, 65530, 7, 0, 65531, 7, 0, 65532, 7, 0, 65533, 7, 0, 65534, 7, 0, 65535, 7, 0, 0, 3, 0, 1, 3, 0, 2, 7, 0, 3, 7, 0, 4, 3, 0, 5, 5, 0, 6, 7, 0, 7, 7, 0, 8, 3, 0, 9, 5, 0, 10, 3, 0, 11, 3, 0, 12, 3, 0, 13, 7, 0, 14, 3, 0, 15, 3, 0, 16, 5, 0, 17, 7, 0, 18, 7, 0, 19, 1073741831, 0, 20, 1073741831, 0, 21, 7, 0, 22, 3, 0, 23, 3, 0, 24, 3, 0, 25, 7, 0, 26, 7, 0, 27, 5, 0, 28, 3, 0, 29, 3, 0, 30, 7, 0, 31, 5, 0, 32, 7, 0, 33, 7, 0, 34, 3, 0, 35, 3, 0, 36, 5, 0, 37, 7, 0, 38, 6, 0, 39, 3, 0, 40, 7, 0, 41, 7, 0, 42, 7, 0, 43, 7, 0, 44, 7, 0, 45, 7, 0, 46, 7, 0, 47, 7, 0, 48, 7, 0, 131062, 7, 0, 131063, 7, 0, 131064, 7, 0, 131065, 7, 0, 131066, 7, 0, 131067, 7, 0, 131068, 7, 0, 131069, 7, 0, 131070, 5, 0, 131071, 7, 0, 65536, 7, 0, 65537, 7, 0, 65538, 7, 0, 65539, 3, 0, 65540, 3, 0, 65541, 3, 0, 65542, 3, 0, 65543, 3, 0, 65544, 3, 0, 65545, 3, 0, 65546, 3, 0, 65547, 3, 0, 65548, 7, 0, 65549, 7, 0, 65550, 3, 0, 65551, 3, 0, 65552, 3, 0, 65553, 3, 0, 65554, 1073741831, 0, 65555, 1073741831, 0, 65556, 1073741831, 0, 65557, 1073741827, 0, 65558, 3, 0, 65559, 5, 0, 65560, 3, 0, 65561, 3, 0, 65562, 3, 0, 65563, 3, 0, 65564, 3, 0, 65565, 6, 0, 65566, 7, 0, 65567, 7, 0, 65568, 3, 0, 65569, 3, 0, 65570, 5, 0, 65571, 3, 0, 65572, 6, 0, 65573, 3, 0, 65574, 7, 0, 65575, 7, 0, 65576, 7, 0, 65577, 7, 0, 65578, 7, 0, 65579, 7, 0, 65580, 7, 0, 65581, 7, 0, 65582, 7, 0, 65583, 7, 0, 65584, 7, 0, 196598, 7, 0, 196599, 7, 0, 196600, 7, 0, 196601, 7, 0, 196602, 7, 0, 196603, 7, 0, 196604, 7, 0, 196605, 7, 0, 196606, 7, 0, 196607, 7, 0, 131072, 3, 0, 131073, 5, 0, 131074, 3, 0, 131075, 3, 0, 131076, 3, 0, 131077, 3, 0, 131078, 3, 0, 131079, 3, 0, 131080, 1, 0, 131081, 1610612738, 0, 131082, 1610612738, 0, 131083, 5, 0, 131084, 3, 0, 131085, 3, 0, 131086, 3, 0, 131087, 1610612738, 0, 131088, 1610612738, 0, 131089, 3, 0, 131090, 1073741831, 0, 131091, 1073741831, 0, 131092, 1073741831, 0, 131093, 1073741827, 0, 131094, 3, 0, 131095, 2, 0, 131096, 2, 0, 131097, 3, 0, 131098, 6, 0, 131099, 3, 0, 131100, 2, 0, 131101, 3, 0, 131102, 7, 0, 131103, 7, 0, 131104, 3, 0, 131105, 3, 0, 131106, 3, 0, 131107, 3, 0, 131108, 3, 0, 131109, 3, 0, 131110, 3, 0, 131111, 7, 0, 131112, 7, 0, 131113, 7, 0, 131114, 7, 0, 131115, 7, 0, 131116, 7, 0, 131117, 7, 0, 131118, 7, 0, 131119, 7, 0, 131120, 7, 0, 262134, 7, 0, 262135, 7, 0, 262136, 7, 0, 262137, 7, 0, 262138, 7, 0, 262139, 7, 0, 262140, 7, 0, 262141, 7, 0, 262142, 7, 0, 262143, 3, 0, 196608, 3, 0, 196609, 3, 0, 196610, 3, 0, 196611, 3, 0, 196612, 5, 0, 196613, 1610612738, 0, 196614, 1610612737, 0, 196615, 1610612738, 0, 196616, 1610612738, 0, 196617, 3, 0, 196618, 3, 0, 196619, 1, 0, 196620, 6, 0, 196621, 3, 0, 196622, 1073741827, 0, 196623, 1073741827, 0, 196624, 1073741827, 0, 196625, 1073741827, 0, 196626, 1073741831, 0, 196627, 1073741831, 0, 196628, 1073741831, 0, 196629, 1073741827, 0, 196630, 1, 0, 196631, 3, 0, 196632, 8, 0, 196633, 8, 0, 196634, 8, 0, 196635, 3, 0, 196636, 2, 0, 196637, 1, 0, 196638, 7, 0, 196639, 7, 0, 196640, 5, 0, 196641, 3, 0, 196642, 2, 0, 196643, 3, 0, 196644, 5, 0, 196645, 7, 0, 196646, 7, 0, 196647, 7, 0, 196648, 3, 0, 196649, 7, 0, 196650, 7, 0, 196651, 7, 0, 196652, 7, 0, 196653, 7, 0, 196654, 7, 0, 196655, 7, 0, 196656, 7, 0, 327670, 7, 0, 327671, 7, 0, 327672, 7, 0, 327673, 7, 0, 327674, 7, 0, 327675, 7, 0, 327676, 7, 0, 327677, 7, 0, 327678, 9, 0, 327679, 9, 0, 262144, 3, 0, 262145, 3, 0, 262146, 3, 0, 262147, 1610612738, 0, 262148, 1610612738, 0, 262149, 3, 0, 262150, 1, 0, 262151, 1, 0, 262152, 1, 0, 262153, 1, 0, 262154, 1, 0, 262155, 1610612738, 0, 262156, 1610612738, 0, 262157, 1610612737, 0, 262158, 1073741827, 0, 262159, 1073741827, 0, 262160, 1073741827, 0, 262161, 1073741827, 0, 262162, 1073741831, 0, 262163, 1073741831, 0, 262164, 1073741831, 0, 262165, 7, 0, 262166, 7, 0, 262167, 7, 0, 262168, 8, 0, 262169, 8, 0, 262170, 8, 0, 262171, 2, 0, 262172, 2, 0, 262173, 1, 0, 262174, 7, 0, 262175, 7, 0, 262176, 2, 0, 262177, 3, 0, 262178, 1, 0, 262179, 2, 0, 262180, 3, 0, 262181, 3, 0, 262182, 3, 0, 262183, 3, 0, 262184, 7, 0, 262185, 7, 0, 262186, 7, 0, 262187, 7, 0, 262188, 7, 0, 262189, 7, 0, 262190, 7, 0, 262191, 7, 0, 262192, 7, 0, 393206, 7, 0, 393207, 7, 0, 393208, 7, 0, 393209, 7, 0, 393210, 7, 0, 393211, 7, 0, 393212, 7, 0, 393213, 7, 0, 393214, 1073741834, 0, 393215, 1073741834, 0, 327680, 3, 0, 327681, 3, 0, 327682, 1610612738, 0, 327683, 3, 0, 327684, 1610612738, 0, 327685, 1610612738, 0, 327686, 1, 0, 327687, 8, 0, 327688, 8, 0, 327689, 8, 0, 327690, 1610612737, 0, 327691, 1610612738, 0, 327692, 1610612738, 0, 327693, 1610612738, 0, 327694, 1610612738, 0, 327695, 1610612738, 0, 327696, 1610612738, 0, 327697, 9, 0, 327698, 9, 0, 327699, 9, 0, 327700, 9, 0, 327701, 9, 0, 327702, 9, 0, 327703, 9, 0, 327704, 1073741826, 0, 327705, 8, 0, 327706, 8, 0, 327707, 8, 0, 327708, 8, 0, 327709, 3, 0, 327710, 3, 0, 327711, 3, 0, 327712, 2, 0, 327713, 1, 0, 327714, 1, 0, 327715, 1, 0, 327716, 1, 0, 327717, 3, 0, 327718, 5, 0, 327719, 3, 0, 327720, 7, 0, 327721, 7, 0, 327722, 7, 0, 327723, 7, 0, 327724, 7, 0, 327725, 7, 0, 327726, 7, 0, 327727, 7, 0, 327728, 7, 0, 458742, 7, 0, 458743, 7, 0, 458744, 7, 0, 458745, 7, 0, 458746, 7, 0, 458747, 7, 0, 458748, 7, 0, 458749, 7, 0, 458750, 1073741834, 0, 458751, 1073741834, 0, 393216, 3, 0, 393217, 3, 0, 393218, 1610612738, 0, 393219, 3, 0, 393220, 1610612738, 0, 393221, 1610612738, 0, 393222, 1, 0, 393223, 1, 0, 393224, 1, 0, 393225, 1, 0, 393226, 8, 0, 393227, 8, 0, 393228, 1610612738, 0, 393229, 1610612738, 0, 393230, 1610612738, 0, 393231, 1, 0, 393232, 1610612738, 0, 393233, 1073741834, 0, 393234, 1073741834, 0, 393235, 1073741834, 0, 393236, 1073741834, 0, 393237, 1073741834, 0, 393238, 1073741834, 0, 393239, 1073741834, 0, 393240, 2, 0, 393241, 1, 0, 393242, 1, 0, 393243, 8, 0, 393244, 8, 0, 393245, 2, 0, 393246, 2, 0, 393247, 5, 0, 393248, 2, 0, 393249, 8, 0, 393250, 8, 0, 393251, 8, 0, 393252, 5, 0, 393253, 2, 0, 393254, 3, 0, 393255, 7, 0, 393256, 7, 0, 393257, 3, 0, 393258, 5, 0, 393259, 7, 0, 393260, 7, 0, 393261, 7, 0, 393262, 7, 0, 393263, 7, 0, 393264, 7, 0, 524278, 7, 0, 524279, 7, 0, 524280, 7, 0, 524281, 7, 0, 524282, 7, 0, 524283, 7, 0, 524284, 7, 0, 524285, 7, 0, 524286, 1073741834, 0, 524287, 1073741834, 0, 458752, 3, 0, 458753, 3, 0, 458754, 3, 0, 458755, 1610612738, 0, 458756, 1610612738, 0, 458757, 1610612737, 0, 458758, 1610612738, 0, 458759, 1, 0, 458760, 1610612738, 0, 458761, 1610612737, 0, 458762, 1610612738, 0, 458763, 1, 0, 458764, 1, 0, 458765, 1, 0, 458766, 1610612738, 0, 458767, 1610612738, 0, 458768, 1610612738, 0, 458769, 1073741834, 0, 458770, 1073741834, 0, 458771, 1073741834, 0, 458772, 1073741834, 0, 458773, 1073741834, 0, 458774, 1073741834, 0, 458775, 1073741834, 0, 458776, 2, 0, 458777, 2, 0, 458778, 2, 0, 458779, 8, 0, 458780, 8, 0, 458781, 1, 0, 458782, 2, 0, 458783, 3, 0, 458784, 3, 0, 458785, 8, 0, 458786, 8, 0, 458787, 8, 0, 458788, 2, 0, 458789, 3, 0, 458790, 3, 0, 458791, 3, 0, 458792, 7, 0, 458793, 7, 0, 458794, 7, 0, 458795, 7, 0, 458796, 7, 0, 458797, 7, 0, 458798, 7, 0, 458799, 7, 0, 458800, 7, 0, 589814, 7, 0, 589815, 7, 0, 589816, 7, 0, 589817, 7, 0, 589818, 7, 0, 589819, 7, 0, 589820, 7, 0, 589821, 7, 0, 589822, 1073741833, 0, 589823, 1073741833, 0, 524288, 3, 0, 524289, 6, 0, 524290, 1610612738, 0, 524291, 1, 0, 524292, 1, 0, 524293, 1610612738, 0, 524294, 8, 0, 524295, 8, 0, 524296, 8, 0, 524297, 1610612738, 0, 524298, 1610612738, 0, 524299, 1610612738, 0, 524300, 1610612738, 0, 524301, 1, 0, 524302, 8, 0, 524303, 8, 0, 524304, 1610612738, 0, 524305, 1073741833, 0, 524306, 1073741833, 0, 524307, 1073741833, 0, 524308, 1073741833, 0, 524309, 1073741833, 0, 524310, 1073741833, 0, 524311, 1073741833, 0, 524312, 1, 0, 524313, 1, 0, 524314, 2, 0, 524315, 8, 0, 524316, 8, 0, 524317, 8, 0, 524318, 8, 0, 524319, 2, 0, 524320, 2, 0, 524321, 2, 0, 524322, 8, 0, 524323, 2, 0, 524324, 3, 0, 524325, 5, 0, 524326, 3, 0, 524327, 3, 0, 524328, 7, 0, 524329, 7, 0, 524330, 7, 0, 524331, 7, 0, 524332, 7, 0, 524333, 7, 0, 524334, 7, 0, 524335, 7, 0, 524336, 7, 0, 655350, 7, 0, 655351, 7, 0, 655352, 7, 0, 655353, 7, 0, 655354, 7, 0, 655355, 7, 0, 655356, 7, 0, 655357, 7, 0, 655358, 7, 0, 655359, 3, 0, 589824, 3, 0, 589825, 3, 0, 589826, 1610612738, 0, 589827, 1, 0, 589828, 1610612738, 0, 589829, 1610612738, 0, 589830, 8, 0, 589831, 8, 0, 589832, 8, 0, 589833, 1610612738, 0, 589834, 1610612738, 0, 589835, 1, 0, 589836, 1610612738, 0, 589837, 1610612738, 0, 589838, 8, 0, 589839, 8, 0, 589840, 2, 0, 589841, 1073741831, 0, 589842, 1073741831, 0, 589843, 1073741831, 0, 589844, 1073741831, 0, 589845, 1073741831, 0, 589846, 1073741831, 0, 589847, 1073741831, 0, 589848, 1073741831, 0, 589849, 2, 0, 589850, 1, 0, 589851, 8, 0, 589852, 8, 0, 589853, 8, 0, 589854, 8, 0, 589855, 1, 0, 589856, 2, 0, 589857, 1, 0, 589858, 2, 0, 589859, 2, 0, 589860, 3, 0, 589861, 7, 0, 589862, 7, 0, 589863, 7, 0, 589864, 7, 0, 589865, 7, 0, 589866, 7, 0, 589867, 7, 0, 589868, 7, 0, 589869, 7, 0, 589870, 7, 0, 589871, 7, 0, 589872, 7, 0, 720886, 7, 0, 720887, 7, 0, 720888, 7, 0, 720889, 7, 0, 720890, 7, 0, 720891, 7, 0, 720892, 7, 0, 720893, 7, 0, 720894, 7, 0, 720895, 7, 0, 655360, 6, 0, 655361, 3, 0, 655362, 3, 0, 655363, 1610612737, 0, 655364, 1610612738, 0, 655365, 1, 0, 655366, 8, 0, 655367, 8, 0, 655368, 8, 0, 655369, 1610612738, 0, 655370, 1610612738, 0, 655371, 1, 0, 655372, 1, 0, 655373, 1610612738, 0, 655374, 1610612738, 0, 655375, 1610612738, 0, 655376, 1610612738, 0, 655377, 1610612738, 0, 655378, 1, 0, 655379, 1073741831, 0, 655380, 1073741831, 0, 655381, 1073741831, 0, 655382, 1073741831, 0, 655383, 2, 0, 655384, 2, 0, 655385, 1, 0, 655386, 1, 0, 655387, 1, 0, 655388, 5, 0, 655389, 3, 0, 655390, 2, 0, 655391, 1, 0, 655392, 1, 0, 655393, 1, 0, 655394, 2, 0, 655395, 5, 0, 655396, 3, 0, 655397, 6, 0, 655398, 7, 0, 655399, 7, 0, 655400, 5, 0, 655401, 3, 0, 655402, 3, 0, 655403, 7, 0, 655404, 7, 0, 655405, 7, 0, 655406, 7, 0, 655407, 7, 0, 655408, 7, 0, 786422, 7, 0, 786423, 7, 0, 786424, 7, 0, 786425, 7, 0, 786426, 7, 0, 786427, 7, 0, 786428, 7, 0, 786429, 7, 0, 786430, 3, 0, 786431, 7, 0, 720896, 3, 0, 720897, 3, 0, 720898, 3, 0, 720899, 1610612738, 0, 720900, 5, 0, 720901, 1610612738, 0, 720902, 1, 0, 720903, 1610612738, 0, 720904, 1610612738, 0, 720905, 1610612738, 0, 720906, 1610612738, 0, 720907, 1610612738, 0, 720908, 1, 0, 720909, 1610612738, 0, 720910, 8, 0, 720911, 8, 0, 720912, 1, 0, 720913, 8, 0, 720914, 3, 0, 720915, 1073741831, 0, 720916, 1073741831, 0, 720917, 1073741831, 0, 720918, 1073741831, 0, 720919, 1, 0, 720920, 2, 0, 720921, 8, 0, 720922, 8, 0, 720923, 2, 0, 720924, 3, 0, 720925, 1, 0, 720926, 1, 0, 720927, 1, 0, 720928, 8, 0, 720929, 8, 0, 720930, 1, 0, 720931, 2, 0, 720932, 5, 0, 720933, 3, 0, 720934, 3, 0, 720935, 7, 0, 720936, 7, 0, 720937, 3, 0, 720938, 7, 0, 720939, 7, 0, 720940, 7, 0, 720941, 7, 0, 720942, 7, 0, 720943, 7, 0, 720944, 7, 0, 851958, 7, 0, 851959, 7, 0, 851960, 7, 0, 851961, 7, 0, 851962, 7, 0, 851963, 7, 0, 851964, 7, 0, 851965, 7, 0, 851966, 7, 0, 851967, 7, 0, 786432, 3, 0, 786433, 3, 0, 786434, 5, 0, 786435, 3, 0, 786436, 3, 0, 786437, 2, 0, 786438, 2, 0, 786439, 2, 0, 786440, 2, 0, 786441, 8, 0, 786442, 8, 0, 786443, 2, 0, 786444, 2, 0, 786445, 8, 0, 786446, 8, 0, 786447, 8, 0, 786448, 2, 0, 786449, 3, 0, 786450, 3, 0, 786451, 3, 0, 786452, 1073741831, 0, 786453, 1073741831, 0, 786454, 1073741831, 0, 786455, 2, 0, 786456, 1, 0, 786457, 1, 0, 786458, 2, 0, 786459, 2, 0, 786460, 3, 0, 786461, 3, 0, 786462, 8, 0, 786463, 8, 0, 786464, 8, 0, 786465, 8, 0, 786466, 1, 0, 786467, 2, 0, 786468, 2, 0, 786469, 3, 0, 786470, 3, 0, 786471, 3, 0, 786472, 7, 0, 786473, 7, 0, 786474, 7, 0, 786475, 7, 0, 786476, 7, 0, 786477, 7, 0, 786478, 7, 0, 786479, 7, 0, 786480, 7, 0, 917494, 7, 0, 917495, 7, 0, 917496, 7, 0, 917497, 7, 0, 917498, 7, 0, 917499, 7, 0, 917500, 7, 0, 917501, 7, 0, 917502, 7, 0, 917503, 7, 0, 851968, 7, 0, 851969, 3, 0, 851970, 7, 0, 851971, 2, 0, 851972, 8, 0, 851973, 8, 0, 851974, 2, 0, 851975, 1, 0, 851976, 1, 0, 851977, 8, 0, 851978, 8, 0, 851979, 2, 0, 851980, 2, 0, 851981, 2, 0, 851982, 2, 0, 851983, 1, 0, 851984, 1, 0, 851985, 1, 0, 851986, 1, 0, 851987, 3, 0, 851988, 1073741831, 0, 851989, 1073741831, 0, 851990, 1073741831, 0, 851991, 1073741831, 0, 851992, 1073741831, 0, 851993, 2, 0, 851994, 2, 0, 851995, 2, 0, 851996, 1, 0, 851997, 2, 0, 851998, 5, 0, 851999, 3, 0, 852000, 8, 0, 852001, 8, 0, 852002, 1, 0, 852003, 2, 0, 852004, 2, 0, 852005, 1, 0, 852006, 3, 0, 852007, 3, 0, 852008, 7, 0, 852009, 7, 0, 852010, 7, 0, 852011, 7, 0, 852012, 7, 0, 852013, 7, 0, 852014, 7, 0, 852015, 7, 0, 852016, 7, 0, 983030, 7, 0, 983031, 7, 0, 983032, 7, 0, 983033, 7, 0, 983034, 7, 0, 983035, 7, 0, 983036, 7, 0, 983037, 7, 0, 983038, 3, 0, 983039, 3, 0, 917504, 7, 0, 917505, 7, 0, 917506, 7, 0, 917507, 2, 0, 917508, 8, 0, 917509, 8, 0, 917510, 1, 0, 917511, 1, 0, 917512, 1, 0, 917513, 8, 0, 917514, 8, 0, 917515, 2, 0, 917516, 1, 0, 917517, 1, 0, 917518, 2, 0, 917519, 2, 0, 917520, 1, 0, 917521, 2, 0, 917522, 2, 0, 917523, 3, 0, 917524, 1073741831, 0, 917525, 1073741831, 0, 917526, 1073741831, 0, 917527, 1073741831, 0, 917528, 1073741831, 0, 917529, 1, 0, 917530, 2, 0, 917531, 2, 0, 917532, 3, 0, 917533, 3, 0, 917534, 3, 0, 917535, 3, 0, 917536, 2, 0, 917537, 1, 0, 917538, 2, 0, 917539, 2, 0, 917540, 6, 0, 917541, 3, 0, 917542, 3, 0, 917543, 5, 0, 917544, 7, 0, 917545, 7, 0, 917546, 7, 0, 917547, 7, 0, 917548, 7, 0, 917549, 7, 0, 917550, 7, 0, 917551, 7, 0, 917552, 7, 0, 1048566, 7, 0, 1048567, 7, 0, 1048568, 7, 0, 1048569, 7, 0, 1048570, 7, 0, 1048571, 7, 0, 1048572, 7, 0, 1048573, 7, 0, 1048574, 7, 0, 1048575, 5, 0, 983040, 7, 0, 983041, 7, 0, 983042, 7, 0, 983043, 7, 0, 983044, 1, 0, 983045, 3, 0, 983046, 2, 0, 983047, 8, 0, 983048, 2, 0, 983049, 2, 0, 983050, 1, 0, 983051, 2, 0, 983052, 1, 0, 983053, 8, 0, 983054, 8, 0, 983055, 8, 0, 983056, 8, 0, 983057, 8, 0, 983058, 8, 0, 983059, 8, 0, 983060, 1073741831, 0, 983061, 1073741831, 0, 983062, 1073741831, 0, 983063, 2, 0, 983064, 2, 0, 983065, 2, 0, 983066, 2, 0, 983067, 1, 0, 983068, 3, 0, 983069, 6, 0, 983070, 2, 0, 983071, 8, 0, 983072, 8, 0, 983073, 8, 0, 983074, 5, 0, 983075, 3, 0, 983076, 3, 0, 983077, 3, 0, 983078, 6, 0, 983079, 7, 0, 983080, 7, 0, 983081, 5, 0, 983082, 7, 0, 983083, 7, 0, 983084, 7, 0, 983085, 7, 0, 983086, 7, 0, 983087, 7, 0, 983088, 7, 0, 1114102, 7, 0, 1114103, 7, 0, 1114104, 7, 0, 1114105, 7, 0, 1114106, 7, 0, 1114107, 7, 0, 1114108, 7, 0, 1114109, 7, 0, 1114110, 7, 0, 1114111, 7, 0, 1048576, 7, 0, 1048577, 7, 0, 1048578, 7, 0, 1048579, 3, 0, 1048580, 1, 0, 1048581, 2, 0, 1048582, 1, 0, 1048583, 8, 0, 1048584, 8, 0, 1048585, 1, 0, 1048586, 2, 0, 1048587, 5, 0, 1048588, 3, 0, 1048589, 8, 0, 1048590, 8, 0, 1048591, 8, 0, 1048592, 8, 0, 1048593, 8, 0, 1048594, 8, 0, 1048595, 8, 0, 1048596, 1073741831, 0, 1048597, 1073741831, 0, 1048598, 1073741831, 0, 1048599, 2, 0, 1048600, 1, 0, 1048601, 2, 0, 1048602, 7, 0, 1048603, 8, 0, 1048604, 8, 0, 1048605, 1, 0, 1048606, 1, 0, 1048607, 8, 0, 1048608, 8, 0, 1048609, 8, 0, 1048610, 3, 0, 1048611, 7, 0, 1048612, 3, 0, 1048613, 3, 0, 1048614, 3, 0, 1048615, 3, 0, 1048616, 7, 0, 1048617, 3, 0, 1048618, 7, 0, 1048619, 7, 0, 1048620, 7, 0, 1048621, 7, 0, 1048622, 7, 0, 1048623, 7, 0, 1048624, 7, 0, 1179638, 7, 0, 1179639, 7, 0, 1179640, 7, 0, 1179641, 7, 0, 1179642, 7, 0, 1179643, 7, 0, 1179644, 7, 0, 1179645, 7, 0, 1179646, 7, 0, 1179647, 7, 0, 1114112, 7, 0, 1114113, 7, 0, 1114114, 5, 0, 1114115, 3, 0, 1114116, 2, 0, 1114117, 2, 0, 1114118, 1, 0, 1114119, 8, 0, 1114120, 8, 0, 1114121, 2, 0, 1114122, 2, 0, 1114123, 3, 0, 1114124, 2, 0, 1114125, 2, 0, 1114126, 1, 0, 1114127, 2, 0, 1114128, 2, 0, 1114129, 2, 0, 1114130, 2, 0, 1114131, 3, 0, 1114132, 1073741831, 0, 1114133, 1073741831, 0, 1114134, 2, 0, 1114135, 1, 0, 1114136, 5, 0, 1114137, 7, 0, 1114138, 7, 0, 1114139, 8, 0, 1114140, 8, 0, 1114141, 2, 0, 1114142, 1, 0, 1114143, 8, 0, 1114144, 8, 0, 1114145, 8, 0, 1114146, 2, 0, 1114147, 7, 0, 1114148, 7, 0, 1114149, 7, 0, 1114150, 3, 0, 1114151, 7, 0, 1114152, 7, 0, 1114153, 6, 0, 1114154, 7, 0, 1114155, 7, 0, 1114156, 7, 0, 1114157, 7, 0, 1114158, 7, 0, 1114159, 7, 0, 1114160, 7, 0, 1245174, 7, 0, 1245175, 7, 0, 1245176, 7, 0, 1245177, 7, 0, 1245178, 7, 0, 1245179, 7, 0, 1245180, 7, 0, 1245181, 7, 0, 1245182, 7, 0, 1245183, 7, 0, 1179648, 6, 0, 1179649, 3, 0, 1179650, 3, 0, 1179651, 3, 0, 1179652, 3, 0, 1179653, 2, 0, 1179654, 3, 0, 1179655, 2, 0, 1179656, 3, 0, 1179657, 2, 0, 1179658, 2, 0, 1179659, 7, 0, 1179660, 2, 0, 1179661, 2, 0, 1179662, 1, 0, 1179663, 1, 0, 1179664, 2, 0, 1179665, 3, 0, 1179666, 3, 0, 1179667, 3, 0, 1179668, 1073741831, 0, 1179669, 1073741831, 0, 1179670, 2, 0, 1179671, 3, 0, 1179672, 2, 0, 1179673, 7, 0, 1179674, 2, 0, 1179675, 3, 0, 1179676, 3, 0, 1179677, 2, 0, 1179678, 5, 0, 1179679, 3, 0, 1179680, 2, 0, 1179681, 1, 0, 1179682, 3, 0, 1179683, 1, 0, 1179684, 7, 0, 1179685, 7, 0, 1179686, 3, 0, 1179687, 3, 0, 1179688, 7, 0, 1179689, 7, 0, 1179690, 7, 0, 1179691, 7, 0, 1179692, 7, 0, 1179693, 7, 0, 1179694, 7, 0, 1179695, 7, 0, 1179696, 7, 0, 1310710, 7, 0, 1310711, 7, 0, 1310712, 7, 0, 1310713, 7, 0, 1310714, 7, 0, 1310715, 7, 0, 1310716, 7, 0, 1310717, 7, 0, 1310718, 7, 0, 1310719, 7, 0, 1245184, 7, 0, 1245185, 7, 0, 1245186, 7, 0, 1245187, 3, 0, 1245188, 3, 0, 1245189, 6, 0, 1245190, 3, 0, 1245191, 3, 0, 1245192, 2, 0, 1245193, 5, 0, 1245194, 3, 0, 1245195, 7, 0, 1245196, 3, 0, 1245197, 2, 0, 1245198, 1, 0, 1245199, 1, 0, 1245200, 3, 0, 1245201, 3, 0, 1245202, 5, 0, 1245203, 5, 0, 1245204, 1073741831, 0, 1245205, 1073741831, 0, 1245206, 3, 0, 1245207, 3, 0, 1245208, 1, 0, 1245209, 7, 0, 1245210, 3, 0, 1245211, 3, 0, 1245212, 5, 0, 1245213, 3, 0, 1245214, 3, 0, 1245215, 6, 0, 1245216, 3, 0, 1245217, 3, 0, 1245218, 3, 0, 1245219, 3, 0, 1245220, 7, 0, 1245221, 7, 0, 1245222, 7, 0, 1245223, 7, 0, 1245224, 7, 0, 1245225, 7, 0, 1245226, 7, 0, 1245227, 7, 0, 1245228, 7, 0, 1245229, 7, 0, 1245230, 7, 0, 1245231, 7, 0, 1245232, 7, 0, 1376246, 7, 0, 1376247, 7, 0, 1376248, 7, 0, 1376249, 7, 0, 1376250, 7, 0, 1376251, 7, 0, 1376252, 7, 0, 1376253, 7, 0, 1376254, 7, 0, 1376255, 3, 0, 1310720, 3, 0, 1310721, 5, 0, 1310722, 7, 0, 1310723, 3, 0, 1310724, 5, 0, 1310725, 3, 0, 1310726, 6, 0, 1310727, 3, 0, 1310728, 5, 0, 1310729, 3, 0, 1310730, 7, 0, 1310731, 7, 0, 1310732, 3, 0, 1310733, 6, 0, 1310734, 3, 0, 1310735, 3, 0, 1310736, 3, 0, 1310737, 3, 0, 1310738, 5, 0, 1310739, 3, 0, 1310740, 1073741831, 0, 1310741, 1073741831, 0, 1310742, 6, 0, 1310743, 3, 0, 1310744, 7, 0, 1310745, 7, 0, 1310746, 3, 0, 1310747, 5, 0, 1310748, 3, 0, 1310749, 3, 0, 1310750, 3, 0, 1310751, 3, 0, 1310752, 3, 0, 1310753, 3, 0, 1310754, 5, 0, 1310755, 3, 0, 1310756, 7, 0, 1310757, 7, 0, 1310758, 7, 0, 1310759, 5, 0, 1310760, 3, 0, 1310761, 3, 0, 1310762, 7, 0, 1310763, 7, 0, 1310764, 7, 0, 1310765, 7, 0, 1310766, 7, 0, 1310767, 7, 0, 1310768, 7, 0, 1441782, 7, 0, 1441783, 7, 0, 1441784, 7, 0, 1441785, 7, 0, 1441786, 7, 0, 1441787, 7, 0, 1441788, 7, 0, 1441789, 7, 0, 1441790, 7, 0, 1441791, 7, 0, 1376256, 6, 0, 1376257, 3, 0, 1376258, 7, 0, 1376259, 7, 0, 1376260, 7, 0, 1376261, 3, 0, 1376262, 3, 0, 1376263, 3, 0, 1376264, 3, 0, 1376265, 3, 0, 1376266, 7, 0, 1376267, 7, 0, 1376268, 7, 0, 1376269, 3, 0, 1376270, 3, 0, 1376271, 6, 0, 1376272, 7, 0, 1376273, 3, 0, 1376274, 3, 0, 1376275, 3, 0, 1376276, 7, 0, 1376277, 1073741831, 0, 1376278, 7, 0, 1376279, 3, 0, 1376280, 7, 0, 1376281, 5, 0, 1376282, 7, 0, 1376283, 7, 0, 1376284, 3, 0, 1376285, 3, 0, 1376286, 7, 0, 1376287, 7, 0, 1376288, 7, 0, 1376289, 3, 0, 1376290, 5, 0, 1376291, 7, 0, 1376292, 7, 0, 1376293, 6, 0, 1376294, 7, 0, 1376295, 7, 0, 1376296, 7, 0, 1376297, 7, 0, 1376298, 7, 0, 1376299, 7, 0, 1376300, 7, 0, 1376301, 7, 0, 1376302, 7, 0, 1376303, 7, 0, 1376304, 7, 0, 1507318, 7, 0, 1507319, 7, 0, 1507320, 7, 0, 1507321, 7, 0, 1507322, 7, 0, 1507323, 7, 0, 1507324, 7, 0, 1507325, 7, 0, 1507326, 7, 0, 1507327, 7, 0, 1441792, 7, 0, 1441793, 7, 0, 1441794, 7, 0, 1441795, 3, 0, 1441796, 7, 0, 1441797, 7, 0, 1441798, 7, 0, 1441799, 7, 0, 1441800, 7, 0, 1441801, 7, 0, 1441802, 3, 0, 1441803, 6, 0, 1441804, 7, 0, 1441805, 7, 0, 1441806, 7, 0, 1441807, 7, 0, 1441808, 7, 0, 1441809, 7, 0, 1441810, 7, 0, 1441811, 7, 0, 1441812, 7, 0, 1441813, 3, 0, 1441814, 7, 0, 1441815, 7, 0, 1441816, 7, 0, 1441817, 7, 0, 1441818, 3, 0, 1441819, 7, 0, 1441820, 7, 0, 1441821, 7, 0, 1441822, 7, 0, 1441823, 3, 0, 1441824, 7, 0, 1441825, 7, 0, 1441826, 7, 0, 1441827, 7, 0, 1441828, 7, 0, 1441829, 7, 0, 1441830, 7, 0, 1441831, 7, 0, 1441832, 7, 0, 1441833, 7, 0, 1441834, 7, 0, 1441835, 7, 0, 1441836, 7, 0, 1441837, 7, 0, 1441838, 7, 0, 1441839, 7, 0, 1441840, 7, 0, 1572854, 7, 0, 1572855, 7, 0, 1572856, 7, 0, 1572857, 7, 0, 1572858, 7, 0, 1572859, 7, 0, 1572860, 7, 0, 1572861, 7, 0, 1572862, 7, 0, 1572863, 7, 0, 1507328, 7, 0, 1507329, 7, 0, 1507330, 7, 0, 1507331, 7, 0, 1507332, 7, 0, 1507333, 7, 0, 1507334, 6, 0, 1507335, 3, 0, 1507336, 7, 0, 1507337, 7, 0, 1507338, 7, 0, 1507339, 7, 0, 1507340, 7, 0, 1507341, 3, 0, 1507342, 7, 0, 1507343, 7, 0, 1507344, 3, 0, 1507345, 3, 0, 1507346, 5, 0, 1507347, 7, 0, 1507348, 7, 0, 1507349, 3, 0, 1507350, 7, 0, 1507351, 7, 0, 1507352, 7, 0, 1507353, 7, 0, 1507354, 6, 0, 1507355, 3, 0, 1507356, 7, 0, 1507357, 7, 0, 1507358, 3, 0, 1507359, 5, 0, 1507360, 3, 0, 1507361, 7, 0, 1507362, 7, 0, 1507363, 7, 0, 1507364, 7, 0, 1507365, 7, 0, 1507366, 7, 0, 1507367, 7, 0, 1507368, 7, 0, 1507369, 7, 0, 1507370, 7, 0, 1507371, 7, 0, 1507372, 7, 0, 1507373, 7, 0, 1507374, 7, 0, 1507375, 7, 0, 1507376, 7, 0, 1638390, 7, 0, 1638391, 7, 0, 1638392, 7, 0, 1638393, 7, 0, 1638394, 7, 0, 1638395, 7, 0, 1638396, 7, 0, 1638397, 7, 0, 1638398, 7, 0, 1638399, 7, 0, 1572864, 7, 0, 1572865, 7, 0, 1572866, 7, 0, 1572867, 7, 0, 1572868, 7, 0, 1572869, 7, 0, 1572870, 3, 0, 1572871, 7, 0, 1572872, 7, 0, 1572873, 7, 0, 1572874, 7, 0, 1572875, 7, 0, 1572876, 7, 0, 1572877, 7, 0, 1572878, 7, 0, 1572879, 7, 0, 1572880, 7, 0, 1572881, 7, 0, 1572882, 3, 0, 1572883, 7, 0, 1572884, 7, 0, 1572885, 7, 0, 1572886, 7, 0, 1572887, 7, 0, 1572888, 7, 0, 1572889, 7, 0, 1572890, 7, 0, 1572891, 7, 0, 1572892, 7, 0, 1572893, 7, 0, 1572894, 7, 0, 1572895, 7, 0, 1572896, 7, 0, 1572897, 7, 0, 1572898, 7, 0, 1572899, 7, 0, 1572900, 7, 0, 1572901, 7, 0, 1572902, 7, 0, 1572903, 7, 0, 1572904, 7, 0, 1572905, 7, 0, 1572906, 7, 0, 1572907, 7, 0, 1572908, 7, 0, 1572909, 7, 0, 1572910, 7, 0, 1572911, 7, 0, 1572912, 7, 0, 1703926, 7, 0, 1703927, 7, 0, 1703928, 7, 0, 1703929, 7, 0, 1703930, 7, 0, 1703931, 7, 0, 1703932, 7, 0, 1703933, 7, 0, 1703934, 7, 0, 1703935, 7, 0, 1638400, 7, 0, 1638401, 7, 0, 1638402, 7, 0, 1638403, 7, 0, 1638404, 7, 0, 1638405, 7, 0, 1638406, 7, 0, 1638407, 7, 0, 1638408, 7, 0, 1638409, 7, 0, 1638410, 7, 0, 1638411, 7, 0, 1638412, 7, 0, 1638413, 7, 0, 1638414, 7, 0, 1638415, 7, 0, 1638416, 7, 0, 1638417, 7, 0, 1638418, 7, 0, 1638419, 7, 0, 1638420, 7, 0, 1638421, 7, 0, 1638422, 7, 0, 1638423, 7, 0, 1638424, 7, 0, 1638425, 7, 0, 1638426, 7, 0, 1638427, 7, 0, 1638428, 7, 0, 1638429, 7, 0, 1638430, 7, 0, 1638431, 7, 0, 1638432, 7, 0, 1638433, 7, 0, 1638434, 7, 0, 1638435, 7, 0, 1638436, 7, 0, 1638437, 7, 0, 1638438, 7, 0, 1638439, 7, 0, 1638440, 7, 0, 1638441, 7, 0, 1638442, 7, 0, 1638443, 7, 0, 1638444, 7, 0, 1638445, 7, 0, 1638446, 7, 0, 1638447, 7, 0, 1638448, 7, 0, 1769462, 7, 0, 1769463, 7, 0, 1769464, 7, 0, 1769465, 7, 0, 1769466, 7, 0, 1769467, 7, 0, 1769468, 7, 0, 1769469, 7, 0, 1769470, 7, 0, 1769471, 7, 0, 1703936, 7, 0, 1703937, 7, 0, 1703938, 7, 0, 1703939, 7, 0, 1703940, 7, 0, 1703941, 7, 0, 1703942, 7, 0, 1703943, 7, 0, 1703944, 7, 0, 1703945, 7, 0, 1703946, 7, 0, 1703947, 7, 0, 1703948, 7, 0, 1703949, 7, 0, 1703950, 7, 0, 1703951, 7, 0, 1703952, 7, 0, 1703953, 7, 0, 1703954, 7, 0, 1703955, 7, 0, 1703956, 7, 0, 1703957, 7, 0, 1703958, 7, 0, 1703959, 7, 0, 1703960, 7, 0, 1703961, 7, 0, 1703962, 7, 0, 1703963, 7, 0, 1703964, 7, 0, 1703965, 7, 0, 1703966, 7, 0, 1703967, 7, 0, 1703968, 7, 0, 1703969, 7, 0, 1703970, 7, 0, 1703971, 7, 0, 1703972, 7, 0, 1703973, 7, 0, 1703974, 7, 0, 1703975, 7, 0, 1703976, 7, 0, 1703977, 7, 0, 1703978, 7, 0, 1703979, 7, 0, 1703980, 7, 0, 1703981, 7, 0, 1703982, 7, 0, 1703983, 7, 0, 1703984, 7, 0, 1834998, 7, 0, 1834999, 7, 0, 1835000, 7, 0, 1835001, 7, 0, 1835002, 7, 0, 1835003, 7, 0, 1835004, 7, 0, 1835005, 7, 0, 1835006, 7, 0, 1835007, 7, 0, 1769472, 7, 0, 1769473, 7, 0, 1769474, 7, 0, 1769475, 7, 0, 1769476, 7, 0, 1769477, 7, 0, 1769478, 7, 0, 1769479, 7, 0, 1769480, 7, 0, 1769481, 7, 0, 1769482, 7, 0, 1769483, 7, 0, 1769484, 7, 0, 1769485, 7, 0, 1769486, 7, 0, 1769487, 7, 0, 1769488, 7, 0, 1769489, 7, 0, 1769490, 7, 0, 1769491, 7, 0, 1769492, 7, 0, 1769493, 7, 0, 1769494, 7, 0, 1769495, 7, 0, 1769496, 7, 0, 1769497, 7, 0, 1769498, 7, 0, 1769499, 7, 0, 1769500, 7, 0, 1769501, 7, 0, 1769502, 7, 0, 1769503, 7, 0, 1769504, 7, 0, 1769505, 7, 0, 1769506, 7, 0, 1769507, 7, 0, 1769508, 7, 0, 1769509, 7, 0, 1769510, 7, 0, 1769511, 7, 0, 1769512, 7, 0, 1769513, 7, 0, 1769514, 7, 0, 1769515, 7, 0, 1769516, 7, 0, 1769517, 7, 0, 1769518, 7, 0, 1769519, 7, 0, 1769520, 7, 0, 1900534, 7, 0, 1900535, 7, 0, 1900536, 7, 0, 1900537, 7, 0, 1900538, 7, 0, 1900539, 7, 0, 1900540, 7, 0, 1900541, 7, 0, 1900542, 7, 0, 1900543, 7, 0, 1835008, 7, 0, 1835009, 7, 0, 1835010, 7, 0, 1835011, 7, 0, 1835012, 7, 0, 1835013, 7, 0, 1835014, 7, 0, 1835015, 7, 0, 1835016, 7, 0, 1835017, 7, 0, 1835018, 7, 0, 1835019, 7, 0, 1835020, 7, 0, 1835021, 7, 0, 1835022, 7, 0, 1835023, 7, 0, 1835024, 7, 0, 1835025, 7, 0, 1835026, 7, 0, 1835027, 7, 0, 1835028, 7, 0, 1835029, 7, 0, 1835030, 7, 0, 1835031, 7, 0, 1835032, 7, 0, 1835033, 7, 0, 1835034, 7, 0, 1835035, 7, 0, 1835036, 7, 0, 1835037, 7, 0, 1835038, 7, 0, 1835039, 7, 0, 1835040, 7, 0, 1835041, 7, 0, 1835042, 7, 0, 1835043, 7, 0, 1835044, 7, 0, 1835045, 7, 0, 1835046, 7, 0, 1835047, 7, 0, 1835048, 7, 0, 1835049, 7, 0, 1835050, 7, 0, 1835051, 7, 0, 1835052, 7, 0, 1835053, 7, 0, 1835054, 7, 0, 1835055, 7, 0, 1835056, 7, 0 )

[node name="Player" parent="Navigation2D/TileMap" instance=ExtResource( 12 )]

[node name="StaticNPC" type="Area2D" parent="."]
position = Vector2( 984.366, 355.866 )
rotation = 1.5708
scale = Vector2( 2, 2 )
__meta__ = {
"_edit_group_": true
}

[node name="Sprite" type="Sprite" parent="StaticNPC"]
texture = ExtResource( 13 )

[node name="CollisionShape2D" type="CollisionShape2D" parent="StaticNPC"]
shape = SubResource( 12 )

[node name="Tree3" parent="." instance=ExtResource( 14 )]
position = Vector2( 2127.15, 832.209 )

[node name="Tree4" parent="." instance=ExtResource( 14 )]
position = Vector2( 2113.43, 715.165 )

[node name="Bushes" parent="." instance=ExtResource( 15 )]
position = Vector2( 696.116, 421.464 )

[node name="BuildingOne4" parent="." instance=ExtResource( 16 )]
position = Vector2( 558.37, 342.8 )

[node name="BuildingOne2" parent="." instance=ExtResource( 16 )]
position = Vector2( 932.367, 776.814 )

[node name="BuildingThree2" parent="." instance=ExtResource( 17 )]
position = Vector2( 1187.77, 1019.26 )

[node name="BuildingThree3" parent="." instance=ExtResource( 17 )]
position = Vector2( 1649.72, 276.84 )

[node name="BuildingThree5" parent="." instance=ExtResource( 17 )]
position = Vector2( 508.986, 1089.97 )

[node name="BuildingThree6" parent="." instance=ExtResource( 17 )]
position = Vector2( 655.113, 896.702 )

[node name="BuildingThree8" parent="." instance=ExtResource( 17 )]
position = Vector2( 2081.03, 1061.68 )

[node name="BuildingFive" parent="." instance=ExtResource( 18 )]
position = Vector2( 985.718, 1020.46 )

[node name="BuildingFive3" parent="." instance=ExtResource( 18 )]
position = Vector2( 1791.77, 487.807 )
rotation = 1.5708

[node name="BuildingFive4" parent="." instance=ExtResource( 18 )]
position = Vector2( 1791.77, 487.807 )
rotation = 1.5708

[node name="Bushes2" parent="." instance=ExtResource( 15 )]
position = Vector2( 1667.88, 728.313 )

[node name="Bushes3" parent="." instance=ExtResource( 15 )]
position = Vector2( 1779.54, 1084.92 )

[node name="Bushes4" parent="." instance=ExtResource( 15 )]
position = Vector2( 643.245, 777.971 )

[node name="Bushes5" parent="." instance=ExtResource( 15 )]
position = Vector2( 967.462, 587.435 )

[node name="Bushes9" parent="." instance=ExtResource( 15 )]
position = Vector2( 300.462, 883.123 )

[node name="Bushes6" parent="." instance=ExtResource( 15 )]
position = Vector2( 1910.84, 557.065 )

[node name="Bushes7" parent="." instance=ExtResource( 15 )]
position = Vector2( 2214.88, 486.358 )

[node name="Tree5" parent="." instance=ExtResource( 14 )]
position = Vector2( 2030.01, 766.388 )

[node name="Tree7" parent="." instance=ExtResource( 14 )]
position = Vector2( 2218.56, 384.572 )

[node name="Tree8" parent="." instance=ExtResource( 14 )]
position = Vector2( 483.89, 528.342 )

[node name="Tree9" parent="." instance=ExtResource( 14 )]
position = Vector2( 481.533, 608.476 )

[node name="Exit" parent="." instance=ExtResource( 19 )]
position = Vector2( -30.6006, 416.035 )

[node name="Spawn" type="Position2D" parent="."]
position = Vector2( 174, 301.5 )

[node name="PickUpItem" parent="." instance=ExtResource( 20 )]
visible = false
position = Vector2( 992.999, 364.5 )

[node name="Temp" parent="." instance=ExtResource( 21 )]
visible = false

[node name="Ship" type="Sprite" parent="."]
position = Vector2( -222.726, 413.634 )
rotation = 1.5708
scale = Vector2( 0.1, 0.1 )
texture = ExtResource( 22 )

[node name="SeagullSounds" type="Node2D" parent="."]

[node name="Seagull2" type="AudioStreamPlayer2D" parent="SeagullSounds"]
position = Vector2( 476.092, 610.435 )
stream = ExtResource( 23 )
volume_db = -5.0
max_distance = 1000.0

[node name="Seagull3" type="AudioStreamPlayer2D" parent="SeagullSounds"]
position = Vector2( 2104.7, 831.982 )
stream = ExtResource( 23 )
volume_db = -5.0
max_distance = 1000.0

[node name="BackgroundSounds" type="Node2D" parent="."]

[node name="BackgroundSea" type="AudioStreamPlayer2D" parent="BackgroundSounds"]
position = Vector2( 113.131, -87.2049 )
stream = ExtResource( 24 )
autoplay = true
bus = "Background"

[node name="BackgroundSea2" type="AudioStreamPlayer2D" parent="BackgroundSounds"]
position = Vector2( 2521.87, -80.1342 )
stream = ExtResource( 24 )
autoplay = true
bus = "Background"

[node name="BackgroundSea3" type="AudioStreamPlayer2D" parent="BackgroundSounds"]
position = Vector2( 2564.3, 1409.42 )
stream = ExtResource( 24 )
bus = "Background"

[node name="BackgroundSea4" type="AudioStreamPlayer2D" parent="BackgroundSounds"]
position = Vector2( -35.3535, 1421.2 )
stream = ExtResource( 24 )
bus = "Background"

[node name="PathPoints" type="Node2D" parent="."]

[node name="PathOne" type="Node2D" parent="PathPoints"]

[node name="NPCPosA" type="Position2D" parent="PathPoints/PathOne"]
position = Vector2( 1205.46, 1345.09 )

[node name="NPCPosB" type="Position2D" parent="PathPoints/PathOne"]
position = Vector2( 968.643, 689.574 )

[node name="PathTwo" type="Node2D" parent="PathPoints"]

[node name="NPCPosA" type="Position2D" parent="PathPoints/PathTwo"]
position = Vector2( 2496.57, 889.879 )

[node name="NPCPosB" type="Position2D" parent="PathPoints/PathTwo"]
position = Vector2( 1517.04, 450.805 )

[node name="PathThree" type="Node2D" parent="PathPoints"]

[node name="NPCPosA" type="Position2D" parent="PathPoints/PathThree"]
position = Vector2( 2296.7, 178.431 )

[node name="NPCPosB" type="Position2D" parent="PathPoints/PathThree"]
position = Vector2( 796.59, 265.334 )

[node name="DayNightTint" parent="." instance=ExtResource( 25 )]
[connection signal="body_entered" from="StaticNPC" to="." method="_on_StaticNPC_body_entered"]
