[gd_resource type="DynamicFont" load_steps=2 format=2]

[ext_resource path="res://Fonts/PirataOne-Regular.ttf" type="DynamicFontData" id=1]

[resource]
size = 22
outline_size = 2
outline_color = Color( 0, 0, 0, 1 )
use_filter = true
extra_spacing_char = 2
extra_spacing_space = -1
font_data = ExtResource( 1 )
