[gd_scene load_steps=6 format=2]

[ext_resource path="res://CharacterTopDownView/NPCs/NPCMovement.gd" type="Script" id=1]
[ext_resource path="res://CharactersImages/CharacterImages/Navy_idle.png" type="Texture" id=2]
[ext_resource path="res://CharactersImages/CharacterImages/Navy_walking_1.png" type="Texture" id=3]
[ext_resource path="res://CharactersImages/CharacterImages/Navy_walking_2.png" type="Texture" id=4]

[sub_resource type="SpriteFrames" id=1]
animations = [ {
"frames": [ ExtResource( 2 ) ],
"loop": true,
"name": "idle",
"speed": 5.0
}, {
"frames": [ ExtResource( 3 ), ExtResource( 4 ) ],
"loop": true,
"name": "walking",
"speed": 5.0
} ]

[node name="CharacterTwo" type="Node2D"]

[node name="NPCMovement" type="RigidBody2D" parent="."]
mass = 0.00102041
gravity_scale = 0.0
script = ExtResource( 1 )

[node name="AnimatedSprite" type="AnimatedSprite" parent="NPCMovement"]
scale = Vector2( 1.75, 1.75 )
frames = SubResource( 1 )
animation = "walking"
playing = true
